Iteration
…
dat = raw_dat |> 
  janitor::clean_names() |> 
  mutate(
    city_state = paste(city, state, sep = ", ")
  )

summary = dat |> 
  group_by(city_state) |> 
  summarize(
    homicides = n(),
    homicides_unsolved = sum(disposition %in% c("Closed without arrest", "Open/No arrest"), na.rm = TRUE)
  )

summary
## # A tibble: 51 × 3
##    city_state      homicides homicides_unsolved
##    <chr>               <int>              <int>
##  1 Albuquerque, NM       378                146
##  2 Atlanta, GA           973                373
##  3 Baltimore, MD        2827               1825
##  4 Baton Rouge, LA       424                196
##  5 Birmingham, AL        800                347
##  6 Boston, MA            614                310
##  7 Buffalo, NY           521                319
##  8 Charlotte, NC         687                206
##  9 Chicago, IL          5535               4073
## 10 Cincinnati, OH        694                309
## # ℹ 41 more rows
…
my_prop_test = function(df) {
  test_result = prop.test(x = df$homicides_unsolved, n = df$homicides)
  test_result = test_result |> 
    broom::tidy() |> 
    select(estimate, conf.low, conf.high)
} 

city_summary = summary_nest |> 
  mutate(
    results = map(data, my_prop_test)
  ) |> 
  unnest()

city_summary
## # A tibble: 51 × 6
##    city_state      homicides homicides_unsolved estimate conf.low conf.high
##    <chr>               <int>              <int>    <dbl>    <dbl>     <dbl>
##  1 Albuquerque, NM       378                146    0.386    0.337     0.438
##  2 Atlanta, GA           973                373    0.383    0.353     0.415
##  3 Baltimore, MD        2827               1825    0.646    0.628     0.663
##  4 Baton Rouge, LA       424                196    0.462    0.414     0.511
##  5 Birmingham, AL        800                347    0.434    0.399     0.469
##  6 Boston, MA            614                310    0.505    0.465     0.545
##  7 Buffalo, NY           521                319    0.612    0.569     0.654
##  8 Charlotte, NC         687                206    0.300    0.266     0.336
##  9 Chicago, IL          5535               4073    0.736    0.724     0.747
## 10 Cincinnati, OH        694                309    0.445    0.408     0.483
## # ℹ 41 more rows
…
